{
	"product_id": "1",
	"name": "Nike Shoes",
	"description": "Basketball Shoes",
	"price": 5000,
	"stocks": 20,
	"isActive": true,
	"SKU": [
		"qwerty1234"
	]
}

{

"product_id": "2",
	"name": "Adiddas Shoes",
	"description": "Basketball Shoes",
	"price": 5500,
	"stocks": 10,
	"isActive": true,
	"SKU": [
		"lhdncj3451"
	]

}

{

"product_id": "3",
	"name": "Under Armour Shoes",
	"description": "Basketball Shoes",
	"price": 3500,
	"stocks": 15,
	"isActive": true,
	"SKU": [
		"mnbvdd9912"
	]

}

